{
  "scoresList": [
    {
      "name": "Александров Игнат Анатолиевич",
      "totalGames": "24534",
      "wins": "9824",
      "loses": "1222",
      "percentWins": "87"
    },
    {
      "name": "Шевченко Рафаил Михайлович",
      "totalGames": "24534",
      "wins": "9824",
      "loses": "1222",
      "percentWins": "87"
    },
    {
      "name": "Мазайло Трофим Артёмович",
      "totalGames": "24534",
      "wins": "9824",
      "loses": "1222",
      "percentWins": "87"
    },
    {
      "name": "Логинов Остин Данилович",
      "totalGames": "24534",
      "wins": "9824",
      "loses": "1222",
      "percentWins": "87"
    },
    {
      "name": "Борисов Йошка Васильевич",
      "totalGames": "24534",
      "wins": "9824",
      "loses": "1222",
      "percentWins": "87"
    },
    {
      "name": "Соловьёв Ждан Михайлович",
      "totalGames": "24534",
      "wins": "9824",
      "loses": "1222",
      "percentWins": "87"
    },
    {
      "name": "Негода Михаил Эдуардович",
      "totalGames": "24534",
      "wins": "9824",
      "loses": "1222",
      "percentWins": "87"
    },
    {
      "name": "Гордеев Шамиль Леонидович",
      "totalGames": "24534",
      "wins": "9824",
      "loses": "1222",
      "percentWins": "87"
    },
    {
      "name": "Многогрешный Павел Виталиевич",
      "totalGames": "24534",
      "wins": "9824",
      "loses": "1222",
      "percentWins": "87"
    },
    {
      "name": "Александров Игнат Анатолиевич",
      "totalGames": "24534",
      "wins": "9824",
      "loses": "1222",
      "percentWins": "87"
    },
    {
      "name": "Волков Эрик Алексеевич",
      "totalGames": "24534",
      "wins": "9824",
      "loses": "1222",
      "percentWins": "87"
    },
    {
      "name": "Кузьмин Ростислав Васильевич",
      "totalGames": "24534",
      "wins": "9824",
      "loses": "1222",
      "percentWins": "87"
    },
    {
      "name": "Стрелков Филипп Борисович",
      "totalGames": "24534",
      "wins": "9824",
      "loses": "1222",
      "percentWins": "87"
    },
    {
      "name": "Галкин Феликс Платонович\n",
      "totalGames": "24534",
      "wins": "9824",
      "loses": "1222",
      "percentWins": "87"
    }
  ]
}